{
  "version": 1,
  "isRoot": true,
  "tools": {
    "fable": {
      "version": "4.1.3",
      "commands": [
        "fable"
      ]
    },
    "fake-cli": {
      "version": "5.22.0",
      "commands": [
        "fake"
      ]
    },
    "fsautocomplete": {
      "version": "0.69.0",
      "commands": [
        "fsautocomplete"
      ]
    },
    "paket": {
      "version": "8.0.3",
      "commands": [
        "paket"
      ]
    },
    "fantomas": {
      "version": "6.3.10",
      "commands": [
        "fantomas"
      ]
    }
  }
}